…
### Getting tidy data.frame

``` r
tidy_data <- test_df %>% gv2tidy_data_df()
tidy_data
#> # A tibble: 26,256 x 4
#>       id key         value `Ensembl Gene`
#>    <int> <chr>       <dbl> <chr>         
#>  1     1 Log2-ratio  0.248 AT1G01010     
#>  2     2 Log2-ratio -1.37  AT1G01010     
#>  3     3 Log2-ratio  1.74  AT1G01010     
#>  4     4 Log2-ratio -0.820 AT1G01010     
#>  5     5 Log2-ratio  1.99  AT1G01010     
#>  6     6 Log2-ratio -1.01  AT1G01010     
#>  7     7 Log2-ratio  1.42  AT1G01010     
#>  8     8 Log2-ratio  0.214 AT1G01010     
#>  9     9 Log2-ratio -0.513 AT1G01010     
#> 10    10 Log2-ratio -0.596 AT1G01010     
#> # ... with 26,246 more rows
```
…
